{
  "service": {
    "service": "skf-adp",
    "serviceObject": {
      "name": "skf-adp"
    },
    "provider": {
      "name": "aws",
      "runtime": "python3.7",
      "region": "us-east-1",
      "environment": {
        "REGION": "us-east-1",
        "GET_DATAFLY_ASSETS_SQS": "https://sqs.us-east-1.amazonaws.com/471665274427/get-datafly-assets",
        "PROCESS_DATAFLY_SQS": "https://sqs.us-east-1.amazonaws.com/471665274427/process-datafly.fifo"
      },
      "iam": {
        "role": {
          "statements": [
            {
              "Effect": "Allow",
              "Resource": [
                "*"
              ],
              "Action": [
                "lambda:InvokeFunction",
                "lambda:InvokeAsync"
              ]
            },
            {
              "Effect": "Allow",
              "Resource": [
                "arn:aws:dynamodb:*:*:table/datafly_condition_index",
                "arn:aws:dynamodb:*:*:table/datafly_client_schedule"
              ],
              "Action": [
                "dynamodb:Query",
                "dynamodb:Scan",
                "dynamodb:PutItem",
                "dynamodb:UpdateItem",
                "dynamodb:DeleteItem",
                "dynamodb:GetItem",
                "dynamodb:BatchGetItem",
                "dynamodb:BatchWriteItem"
              ]
            },
            {
              "Effect": "Allow",
              "Resource": "arn:aws:dynamodb:*:*:table/datafly_condition_index/stream/*",
              "Action": [
                "dynamodb:GetRecords"
              ]
            },
            {
              "Effect": "Allow",
              "Resource": "*",
              "Action": [
                "logs:CreateLogStream",
                "logs:PutLogEvents"
              ]
            },
            {
              "Effect": "Allow",
              "Resource": "*",
              "Action": [
                "logs:CreateLogGroup"
              ]
            },
            {
              "Effect": "Allow",
              "Resource": "*",
              "Action": [
                "sqs:*"
              ]
            },
            {
              "Effect": "Allow",
              "Resource": "*",
              "Action": [
                "logs:CreateLogGroup",
                "logs:CreateLogStream",
                "logs:PutLogEvents",
                "ec2:CreateNetworkInterface",
                "ec2:DescribeNetworkInterfaces",
                "ec2:DeleteNetworkInterface",
                "ec2:AssignPrivateIpAddresses",
                "ec2:UnassignPrivateIpAddresses"
              ]
            }
          ]
        }
      },
      "stage": "dev",
      "versionFunctions": true,
      "compiledCloudFormationTemplate": {
        "AWSTemplateFormatVersion": "2010-09-09",
        "Description": "The AWS CloudFormation template for this Serverless application",
        "Resources": {
          "ServerlessDeploymentBucket": {
            "Type": "AWS::S3::Bucket",
            "Properties": {
              "BucketEncryption": {
                "ServerSideEncryptionConfiguration": [
                  {
                    "ServerSideEncryptionByDefault": {
                      "SSEAlgorithm": "AES256"
                    }
                  }
                ]
              }
            }
          },
          "ServerlessDeploymentBucketPolicy": {
            "Type": "AWS::S3::BucketPolicy",
            "Properties": {
              "Bucket": {
                "Ref": "ServerlessDeploymentBucket"
              },
              "PolicyDocument": {
                "Statement": [
                  {
                    "Action": "s3:*",
                    "Effect": "Deny",
                    "Principal": "*",
                    "Resource": [
                      {
                        "Fn::Join": [
                          "",
                          [
                            "arn:",
                            {
                              "Ref": "AWS::Partition"
                            },
                            ":s3:::",
                            {
                              "Ref": "ServerlessDeploymentBucket"
                            },
                            "/*"
                          ]
                        ]
                      },
                      {
                        "Fn::Join": [
                          "",
                          [
                            "arn:",
                            {
                              "Ref": "AWS::Partition"
                            },
                            ":s3:::",
                            {
                              "Ref": "ServerlessDeploymentBucket"
                            }
                          ]
                        ]
                      }
                    ],
                    "Condition": {
                      "Bool": {
                        "aws:SecureTransport": false
                      }
                    }
                  }
                ]
              }
            }
          },
          "CheckDashdataflyLogGroup": {
            "Type": "AWS::Logs::LogGroup",
            "Properties": {
              "LogGroupName": "/aws/lambda/skf-adp-dev-check-datafly"
            }
          },
          "GetDashdataflyDashassetsLogGroup": {
            "Type": "AWS::Logs::LogGroup",
            "Properties": {
              "LogGroupName": "/aws/lambda/skf-adp-dev-get-datafly-assets"
            }
          },
          "ProcessDashdataflyLogGroup": {
            "Type": "AWS::Logs::LogGroup",
            "Properties": {
              "LogGroupName": "/aws/lambda/skf-adp-dev-process-datafly"
            }
          },
          "IamRoleLambdaExecution": {
            "Type": "AWS::IAM::Role",
            "Properties": {
              "AssumeRolePolicyDocument": {
                "Version": "2012-10-17",
                "Statement": [
                  {
                    "Effect": "Allow",
                    "Principal": {
                      "Service": [
                        "lambda.amazonaws.com"
                      ]
                    },
                    "Action": [
                      "sts:AssumeRole"
                    ]
                  }
                ]
              },
              "Policies": [
                {
                  "PolicyName": {
                    "Fn::Join": [
                      "-",
                      [
                        "skf-adp",
                        "dev",
                        "lambda"
                      ]
                    ]
                  },
                  "PolicyDocument": {
                    "Version": "2012-10-17",
                    "Statement": [
                      {
                        "Effect": "Allow",
                        "Action": [
                          "logs:CreateLogStream",
                          "logs:CreateLogGroup"
                        ],
                        "Resource": [
                          {
                            "Fn::Sub": "arn:${AWS::Partition}:logs:${AWS::Region}:${AWS::AccountId}:log-group:/aws/lambda/skf-adp-dev*:*"
                          }
                        ]
                      },
                      {
                        "Effect": "Allow",
                        "Action": [
                          "logs:PutLogEvents"
                        ],
                        "Resource": [
                          {
                            "Fn::Sub": "arn:${AWS::Partition}:logs:${AWS::Region}:${AWS::AccountId}:log-group:/aws/lambda/skf-adp-dev*:*:*"
                          }
                        ]
                      },
                      {
                        "$ref": "$[\"service\"][\"provider\"][\"iam\"][\"role\"][\"statements\"][0]"
                      },
                      {
                        "$ref": "$[\"service\"][\"provider\"][\"iam\"][\"role\"][\"statements\"][1]"
                      },
                      {
                        "$ref": "$[\"service\"][\"provider\"][\"iam\"][\"role\"][\"statements\"][2]"
                      },
                      {
                        "$ref": "$[\"service\"][\"provider\"][\"iam\"][\"role\"][\"statements\"][3]"
                      },
                      {
                        "$ref": "$[\"service\"][\"provider\"][\"iam\"][\"role\"][\"statements\"][4]"
                      },
                      {
                        "$ref": "$[\"service\"][\"provider\"][\"iam\"][\"role\"][\"statements\"][5]"
                      },
                      {
                        "$ref": "$[\"service\"][\"provider\"][\"iam\"][\"role\"][\"statements\"][6]"
                      }
                    ]
                  }
                }
              ],
              "Path": "/",
              "RoleName": {
                "Fn::Join": [
                  "-",
                  [
                    "skf-adp",
                    "dev",
                    {
                      "Ref": "AWS::Region"
                    },
                    "lambdaRole"
                  ]
                ]
              },
              "ManagedPolicyArns": [
                {
                  "Fn::Join": [
                    "",
                    [
                      "arn:",
                      {
                        "Ref": "AWS::Partition"
                      },
                      ":iam::aws:policy/service-role/AWSLambdaVPCAccessExecutionRole"
                    ]
                  ]
                }
              ]
            }
          },
          "CheckDashdataflyLambdaFunction": {
            "Type": "AWS::Lambda::Function",
            "Properties": {
              "Code": {
                "S3Bucket": {
                  "Ref": "ServerlessDeploymentBucket"
                },
                "S3Key": "serverless/skf-adp/dev/1643317744899-2022-01-27T21:09:04.899Z/skf-adp.zip"
              },
              "Handler": "check-datafly/lambda_function.lambda_handler",
              "Runtime": "python3.7",
              "FunctionName": "skf-adp-dev-check-datafly",
              "MemorySize": 512,
              "Timeout": 60,
              "Environment": {
                "Variables": {
                  "REGION": "us-east-1",
                  "GET_DATAFLY_ASSETS_SQS": "https://sqs.us-east-1.amazonaws.com/471665274427/get-datafly-assets",
                  "PROCESS_DATAFLY_SQS": "https://sqs.us-east-1.amazonaws.com/471665274427/process-datafly.fifo"
                }
              },
              "Role": {
                "Fn::GetAtt": [
                  "IamRoleLambdaExecution",
                  "Arn"
                ]
              },
              "VpcConfig": {
                "SecurityGroupIds": [
                  "sg-01ad2f73abc5e1745"
                ],
                "SubnetIds": [
                  "subnet-072f09eb4a9caafa5"
                ]
              },
              "Layers": [
                "arn:aws:lambda:us-east-1:471665274427:layer:pyodbc:1"
              ]
            },
            "DependsOn": [
              "CheckDashdataflyLogGroup"
            ]
          },
          "GetDashdataflyDashassetsLambdaFunction": {
            "Type": "AWS::Lambda::Function",
            "Properties": {
              "Code": {
                "S3Bucket": {
                  "Ref": "ServerlessDeploymentBucket"
                },
                "S3Key": "serverless/skf-adp/dev/1643317744899-2022-01-27T21:09:04.899Z/skf-adp.zip"
              },
              "Handler": "get-datafly-assets/lambda_function.lambda_handler",
              "Runtime": "python3.7",
              "FunctionName": "skf-adp-dev-get-datafly-assets",
              "MemorySize": 512,
              "Timeout": 300,
              "Environment": {
                "Variables": {
                  "REGION": "us-east-1",
                  "GET_DATAFLY_ASSETS_SQS": "https://sqs.us-east-1.amazonaws.com/471665274427/get-datafly-assets",
                  "PROCESS_DATAFLY_SQS": "https://sqs.us-east-1.amazonaws.com/471665274427/process-datafly.fifo"
                }
              },
              "Role": {
                "Fn::GetAtt": [
                  "IamRoleLambdaExecution",
                  "Arn"
                ]
              },
              "VpcConfig": {
                "SecurityGroupIds": [
                  "sg-01ad2f73abc5e1745"
                ],
                "SubnetIds": [
                  "subnet-072f09eb4a9caafa5"
                ]
              },
              "Layers": [
                "arn:aws:lambda:us-east-1:471665274427:layer:pyodbc:1"
              ]
            },
            "DependsOn": [
              "GetDashdataflyDashassetsLogGroup"
            ]
          },
          "ProcessDashdataflyLambdaFunction": {
            "Type": "AWS::Lambda::Function",
            "Properties": {
              "Code": {
                "S3Bucket": {
                  "Ref": "ServerlessDeploymentBucket"
                },
                "S3Key": "serverless/skf-adp/dev/1643317744899-2022-01-27T21:09:04.899Z/skf-adp.zip"
              },
              "Handler": "process-datafly/lambda_function.lambda_handler",
              "Runtime": "python3.7",
              "FunctionName": "skf-adp-dev-process-datafly",
              "MemorySize": 1024,
              "Timeout": 600,
              "Environment": {
                "Variables": {
                  "REGION": "us-east-1",
                  "GET_DATAFLY_ASSETS_SQS": "https://sqs.us-east-1.amazonaws.com/471665274427/get-datafly-assets",
                  "PROCESS_DATAFLY_SQS": "https://sqs.us-east-1.amazonaws.com/471665274427/process-datafly.fifo"
                }
              },
              "Role": {
                "Fn::GetAtt": [
                  "IamRoleLambdaExecution",
                  "Arn"
                ]
              },
              "VpcConfig": {
                "SecurityGroupIds": [
                  "sg-01ad2f73abc5e1745"
                ],
                "SubnetIds": [
                  "subnet-072f09eb4a9caafa5"
                ]
              },
              "Layers": [
                "arn:aws:lambda:us-east-1:471665274427:layer:pyodbc:1",
                "arn:aws:lambda:us-east-1:471665274427:layer:firebird:15"
              ]
            },
            "DependsOn": [
              "ProcessDashdataflyLogGroup"
            ]
          },
          "CheckDashdataflyLambdaVersionWQT2eWydqDsyVhlsUGN9E4eWJ54JrqfJ4Hr8c8vVvQ": {
            "Type": "AWS::Lambda::Version",
            "DeletionPolicy": "Retain",
            "Properties": {
              "FunctionName": {
                "Ref": "CheckDashdataflyLambdaFunction"
              },
              "CodeSha256": "SbR9ZHX5mEjVPNJ2prEA9S77dyI99jTlkW/iuiSuBDY="
            }
          },
          "GetDashdataflyDashassetsLambdaVersionxYAHxHAPdoWmXS8EzjFY5B6qkqKcGP68OPWncITDm4": {
            "Type": "AWS::Lambda::Version",
            "DeletionPolicy": "Retain",
            "Properties": {
              "FunctionName": {
                "Ref": "GetDashdataflyDashassetsLambdaFunction"
              },
              "CodeSha256": "SbR9ZHX5mEjVPNJ2prEA9S77dyI99jTlkW/iuiSuBDY="
            }
          },
          "ProcessDashdataflyLambdaVersionve6c13bIyBYO9ZIvhTHnI24KldgXNjDBiI5iXIJCMto": {
            "Type": "AWS::Lambda::Version",
            "DeletionPolicy": "Retain",
            "Properties": {
              "FunctionName": {
                "Ref": "ProcessDashdataflyLambdaFunction"
              },
              "CodeSha256": "SbR9ZHX5mEjVPNJ2prEA9S77dyI99jTlkW/iuiSuBDY="
            }
          }
        },
        "Outputs": {
          "ServerlessDeploymentBucketName": {
            "Value": {
              "Ref": "ServerlessDeploymentBucket"
            },
            "Export": {
              "Name": "sls-skf-adp-dev-ServerlessDeploymentBucketName"
            }
          },
          "CheckDashdataflyLambdaFunctionQualifiedArn": {
            "Description": "Current Lambda function version",
            "Value": {
              "Ref": "CheckDashdataflyLambdaVersionWQT2eWydqDsyVhlsUGN9E4eWJ54JrqfJ4Hr8c8vVvQ"
            },
            "Export": {
              "Name": "sls-skf-adp-dev-CheckDashdataflyLambdaFunctionQualifiedArn"
            }
          },
          "GetDashdataflyDashassetsLambdaFunctionQualifiedArn": {
            "Description": "Current Lambda function version",
            "Value": {
              "Ref": "GetDashdataflyDashassetsLambdaVersionxYAHxHAPdoWmXS8EzjFY5B6qkqKcGP68OPWncITDm4"
            },
            "Export": {
              "Name": "sls-skf-adp-dev-GetDashdataflyDashassetsLambdaFunctionQualifiedArn"
            }
          },
          "ProcessDashdataflyLambdaFunctionQualifiedArn": {
            "Description": "Current Lambda function version",
            "Value": {
              "Ref": "ProcessDashdataflyLambdaVersionve6c13bIyBYO9ZIvhTHnI24KldgXNjDBiI5iXIJCMto"
            },
            "Export": {
              "Name": "sls-skf-adp-dev-ProcessDashdataflyLambdaFunctionQualifiedArn"
            }
          }
        }
      },
      "coreCloudFormationTemplate": {
        "AWSTemplateFormatVersion": "2010-09-09",
        "Description": "The AWS CloudFormation template for this Serverless application",
        "Resources": {
          "ServerlessDeploymentBucket": {
            "Type": "AWS::S3::Bucket",
            "Properties": {
              "BucketEncryption": {
                "ServerSideEncryptionConfiguration": [
                  {
                    "ServerSideEncryptionByDefault": {
                      "SSEAlgorithm": "AES256"
                    }
                  }
                ]
              }
            }
          },
          "ServerlessDeploymentBucketPolicy": {
            "Type": "AWS::S3::BucketPolicy",
            "Properties": {
              "Bucket": {
                "Ref": "ServerlessDeploymentBucket"
              },
              "PolicyDocument": {
                "Statement": [
                  {
                    "Action": "s3:*",
                    "Effect": "Deny",
                    "Principal": "*",
                    "Resource": [
                      {
                        "Fn::Join": [
                          "",
                          [
                            "arn:",
                            {
                              "Ref": "AWS::Partition"
                            },
                            ":s3:::",
                            {
                              "Ref": "ServerlessDeploymentBucket"
                            },
                            "/*"
                          ]
                        ]
                      },
                      {
                        "Fn::Join": [
                          "",
                          [
                            "arn:",
                            {
                              "Ref": "AWS::Partition"
                            },
                            ":s3:::",
                            {
                              "Ref": "ServerlessDeploymentBucket"
                            }
                          ]
                        ]
                      }
                    ],
                    "Condition": {
                      "Bool": {
                        "aws:SecureTransport": false
                      }
                    }
                  }
                ]
              }
            }
          }
        },
        "Outputs": {
          "ServerlessDeploymentBucketName": {
            "Value": {
              "Ref": "ServerlessDeploymentBucket"
            }
          }
        }
      },
      "vpc": {}
    },
    "custom": {
      "vpcSecurityGroupIds": "sg-01ad2f73abc5e1745",
      "vpcSubnetIds": "subnet-072f09eb4a9caafa5",
      "region": "us-east-1"
    },
    "pluginsData": {},
    "functions": {
      "check-datafly": {
        "handler": "check-datafly/lambda_function.lambda_handler",
        "memorySize": 512,
        "timeout": 60,
        "layers": {
          "$ref": "$[\"service\"][\"provider\"][\"compiledCloudFormationTemplate\"][\"Resources\"][\"CheckDashdataflyLambdaFunction\"][\"Properties\"][\"Layers\"]"
        },
        "vpc": {
          "securityGroupIds": {
            "$ref": "$[\"service\"][\"provider\"][\"compiledCloudFormationTemplate\"][\"Resources\"][\"CheckDashdataflyLambdaFunction\"][\"Properties\"][\"VpcConfig\"][\"SecurityGroupIds\"]"
          },
          "subnetIds": {
            "$ref": "$[\"service\"][\"provider\"][\"compiledCloudFormationTemplate\"][\"Resources\"][\"CheckDashdataflyLambdaFunction\"][\"Properties\"][\"VpcConfig\"][\"SubnetIds\"]"
          }
        },
        "events": [],
        "name": "skf-adp-dev-check-datafly",
        "package": {},
        "memory": 512,
        "runtime": "python3.7",
        "versionLogicalId": "CheckDashdataflyLambdaVersionWQT2eWydqDsyVhlsUGN9E4eWJ54JrqfJ4Hr8c8vVvQ"
      },
      "get-datafly-assets": {
        "handler": "get-datafly-assets/lambda_function.lambda_handler",
        "memorySize": 512,
        "timeout": 300,
        "layers": {
          "$ref": "$[\"service\"][\"provider\"][\"compiledCloudFormationTemplate\"][\"Resources\"][\"GetDashdataflyDashassetsLambdaFunction\"][\"Properties\"][\"Layers\"]"
        },
        "vpc": {
          "securityGroupIds": {
            "$ref": "$[\"service\"][\"provider\"][\"compiledCloudFormationTemplate\"][\"Resources\"][\"GetDashdataflyDashassetsLambdaFunction\"][\"Properties\"][\"VpcConfig\"][\"SecurityGroupIds\"]"
          },
          "subnetIds": {
            "$ref": "$[\"service\"][\"provider\"][\"compiledCloudFormationTemplate\"][\"Resources\"][\"GetDashdataflyDashassetsLambdaFunction\"][\"Properties\"][\"VpcConfig\"][\"SubnetIds\"]"
          }
        },
        "events": [],
        "name": "skf-adp-dev-get-datafly-assets",
        "package": {},
        "memory": 512,
        "runtime": "python3.7",
        "versionLogicalId": "GetDashdataflyDashassetsLambdaVersionxYAHxHAPdoWmXS8EzjFY5B6qkqKcGP68OPWncITDm4"
      },
      "process-datafly": {
        "handler": "process-datafly/lambda_function.lambda_handler",
        "memorySize": 1024,
        "timeout": 600,
        "layers": {
          "$ref": "$[\"service\"][\"provider\"][\"compiledCloudFormationTemplate\"][\"Resources\"][\"ProcessDashdataflyLambdaFunction\"][\"Properties\"][\"Layers\"]"
        },
        "vpc": {
          "securityGroupIds": {
            "$ref": "$[\"service\"][\"provider\"][\"compiledCloudFormationTemplate\"][\"Resources\"][\"ProcessDashdataflyLambdaFunction\"][\"Properties\"][\"VpcConfig\"][\"SecurityGroupIds\"]"
          },
          "subnetIds": {
            "$ref": "$[\"service\"][\"provider\"][\"compiledCloudFormationTemplate\"][\"Resources\"][\"ProcessDashdataflyLambdaFunction\"][\"Properties\"][\"VpcConfig\"][\"SubnetIds\"]"
          }
        },
        "events": [],
        "name": "skf-adp-dev-process-datafly",
        "package": {},
        "memory": 1024,
        "runtime": "python3.7",
        "versionLogicalId": "ProcessDashdataflyLambdaVersionve6c13bIyBYO9ZIvhTHnI24KldgXNjDBiI5iXIJCMto"
      }
    },
    "configValidationMode": "warn",
    "serviceFilename": "serverless.yml",
    "initialServerlessConfig": {
      "service": "skf-adp",
      "frameworkVersion": "3",
      "custom": {
        "$ref": "$[\"service\"][\"custom\"]"
      },
      "provider": {
        "$ref": "$[\"service\"][\"provider\"]"
      },
      "functions": {
        "$ref": "$[\"service\"][\"functions\"]"
      }
    },
    "layers": {},
    "isDashboardMonitoringPreconfigured": false,
    "artifact": "C:\\SKF\\skf-heroes-backend\\adp-datafly\\.serverless\\skf-adp.zip"
  },
  "package": {
    "artifactDirectoryName": "serverless/skf-adp/dev/1643317744899-2022-01-27T21:09:04.899Z",
    "artifact": "skf-adp.zip"
  }
}